{
	"info": {
		"_postman_id": "7562ba13-60de-4462-bc83-fa65cbc7176d",
		"name": "employees-api",
		"schema": "https://schema.getpostman.com/json/collection/v2.1.0/collection.json"
	},
	"item": [
		{
			"name": "/health",
			"request": {
				"method": "GET",
				"header": [],
				"url": {
					"raw": "{{local-url}}/health",
					"host": [
						"{{local-url}}"
					],
					"path": [
						"health"
					]
				}
			},
			"response": []
		},
		{
			"name": "/api/v1/employees",
			"request": {
				"method": "POST",
				"header": [],
				"body": {
					"mode": "raw",
					"raw": "{\n    \"first_name\": \"Ana\", \n    \"other_name\": \"\", \n    \"first_surname\": \"Sedan\", \n    \"second_surname\": \"Roa\", \n    \"job_country\": \"Estados Unidos\", \n    \"type_ID\": \"Cédula de Ciudadanía\", \n    \"number_ID\": \"1114587139\", \n    \"entry_date\": \"10-04-2021\", \n    \"area\": \"Compras\"\n}",
					"options": {
						"raw": {
							"language": "json"
						}
					}
				},
				"url": {
					"raw": "localhost:8888/api/v1/employees",
					"host": [
						"localhost"
					],
					"port": "8888",
					"path": [
						"api",
						"v1",
						"employees"
					]
				}
			},
			"response": []
		},
		{
			"name": "/api/v1/employees/{employee_id}",
			"request": {
				"method": "PATCH",
				"header": [],
				"body": {
					"mode": "raw",
					"raw": "{\n    \"first_name\": \"Ana\", \n    \"other_name\": \"Maria\", \n    \"first_surname\": \"Bernal\", \n    \"second_surname\": \"Roa\", \n    \"job_country\": \"Colombia\", \n    \"type_ID\": \"Cédula de Ciudadanía\", \n    \"number_ID\": \"1119000125\",  \n    \"area\": \"Compras\",\n    \"status\": \"activo\"\n}",
					"options": {
						"raw": {
							"language": "json"
						}
					}
				},
				"url": {
					"raw": "localhost:8888/api/v1/employees/d8cc3d96-bf77-4787-b5c5-6e4353d5b205",
					"host": [
						"localhost"
					],
					"port": "8888",
					"path": [
						"api",
						"v1",
						"employees",
						"d8cc3d96-bf77-4787-b5c5-6e4353d5b205"
					]
				}
			},
			"response": []
		},
		{
			"name": "/api/v1/employees/{employee_id}",
			"protocolProfileBehavior": {
				"disableBodyPruning": true
			},
			"request": {
				"method": "GET",
				"header": [],
				"body": {
					"mode": "raw",
					"raw": "",
					"options": {
						"raw": {
							"language": "json"
						}
					}
				},
				"url": {
					"raw": "localhost:8888/api/v1/employees/d8cc3d96-bf77-4787-b5c5-6e4353d5b205",
					"host": [
						"localhost"
					],
					"port": "8888",
					"path": [
						"api",
						"v1",
						"employees",
						"d8cc3d96-bf77-4787-b5c5-6e4353d5b205"
					]
				}
			},
			"response": []
		},
		{
			"name": "/api/v1/employees",
			"protocolProfileBehavior": {
				"disableBodyPruning": true
			},
			"request": {
				"method": "GET",
				"header": [],
				"body": {
					"mode": "raw",
					"raw": "",
					"options": {
						"raw": {
							"language": "json"
						}
					}
				},
				"url": {
					"raw": "localhost:8888/api/v1/employees",
					"host": [
						"localhost"
					],
					"port": "8888",
					"path": [
						"api",
						"v1",
						"employees"
					]
				}
			},
			"response": []
		}
	]
}